Biostat 203B Homework 2
…
# Print the results
print(labevents_short, width = Inf)

## # A tibble: 1,062,506 x 15
## # Groups:   subject_id, hadm_id [618,082]
##    subject_id  hadm_id charttime           charttime_num hematocrit
##         <int>    <int> <chr>                       <dbl>      <dbl>
##  1   10000019 25058216 2129-05-21 21:10:00         58214       52.6
##  2   10000032 22595853 2180-05-07 05:05:00         76828       37.6
##  3   10000032 22841357 2180-06-27 05:10:00         76879       35.5
##  4   10000032 25742920 2180-08-06 06:36:00         76919       34.6
##  5   10000032 29079034 2180-07-23 21:45:00         76905       NA  
##  6   10000032 29079034 2180-07-24 06:35:00         76906       34.8
##  7   10000032       NA 2180-06-26 16:39:00         76878       NA  
##  8   10000032       NA 2180-03-23 11:51:00         76783       45.4
##  9   10000048       NA 2126-11-22 20:45:00         57303       38.2
## 10   10000084 23052089 2160-11-20 22:30:00         69720       38.2
##    whiteblood_ccount bicarbonate calcium chloride creatinine glucose magnesium
##                <dbl>       <dbl>   <dbl>    <dbl>      <dbl>   <dbl>     <dbl>
##  1              20.3          NA    NA         NA       NA        NA      NA  
##  2               4.2          28     7.8      105        0.3      99       1.7
##  3               6.6          25     7.8       92        0.3      71       1.9
##  4               7.5          26     8.6       95        0.6      95       2.4
##  5              NA            21     9.3      102        0.5     115       2.3
##  6               4.1          NA    NA         NA       NA        NA      NA  
##  7              NA            NA    NA         NA       NA        NA      NA  
##  8               3            27     8.4      101        0.4      95       1.8
##  9               9.6          26    NA        106        0.7      95      NA  
## 10               8.6          19     9.9       98        0.8     100       2  
##    potassium sodium lactate
##        <dbl>  <dbl>   <dbl>
##  1      NA       NA    NA  
##  2       4.5    137    NA  
##  3       5.2    126    NA  
##  4       6.3    126    NA  
##  5       4.7    132    NA  
##  6      NA       NA    NA  
##  7      NA       NA     1.7
##  8       3.7    136    NA  
##  9       4      141    NA  
## 10       5.8    132    NA  
## #  with 1,062,496 more rows
…
# Use the dictionary to rename the vars
vitals_short <-
  vitals_short %>%
  rename(heart_rate = "220045",
         bp_arterial_sys = "220050",
         bp_arterial_mean = "220052",
         bp_noninv_sys = "220179",
         bp_noninv_mean = "220181",
         resp_rate = "220210",
         temp_faren = "223761")

# Print the results
print(vitals_short, width = Inf)

## # A tibble: 217,403 x 12
## # Groups:   subject_id, stay_id [69,607]
##    subject_id  hadm_id  stay_id charttime           charttime_num heart_rate
##         <int>    <int>    <int> <chr>                       <dbl>      <dbl>
##  1   10000032 29079034 37529680 2180-07-23 14:12:00         76905         91
##  2   10000032 29079034 37529680 2180-07-23 14:11:00         76905         NA
##  3   10000032 29079034 37529680 2180-07-23 14:00:00         76905         NA
##  4   10000980 26913865 36742749 2189-06-27 08:56:00         80166         77
##  5   10000980 26913865 36742749 2189-06-27 08:55:00         80166         NA
##  6   10000980 26913865 36742749 2189-06-27 08:54:00         80166         NA
##  7   10000980 26913865 36742749 2189-06-27 09:07:00         80166         NA
##  8   10001217 24597018 30327812 2157-11-20 19:19:00         68624         86
##  9   10001217 24597018 30327812 2157-11-20 19:31:00         68624         NA
## 10   10001217 27703517 30514987 2157-12-19 15:43:00         68653         96
##    bp_noninv_sys bp_noninv_mean resp_rate temp_faren bp_arterial_sys
##            <dbl>          <dbl>     <dbl>      <dbl>           <dbl>
##  1            NA             NA        24       NA                NA
##  2            84             56        NA       NA                NA
##  3            NA             NA        NA       98.7              NA
##  4            NA             NA        NA       NA                NA
##  5           150             92        NA       NA                NA
##  6            NA             NA        23       NA                NA
##  7            NA             NA        NA       98                NA
##  8           151            104        18       NA                NA
##  9            NA             NA        NA       98.5              NA
## 10            NA             NA        NA       NA                NA
##    bp_arterial_mean
##               <dbl>
##  1               NA
##  2               NA
##  3               NA
##  4               NA
##  5               NA
##  6               NA
##  7               NA
##  8               NA
##  9               NA
## 10               NA
## #  with 217,393 more rows
…
